<?xml version="1.0" encoding="UTF-8"?>
<DataFileEntity>
   <description></description>
   <name>amountOfProduct</name>
   <tag></tag>
   <containsHeaders>true</containsHeaders>
   <csvSeperator></csvSeperator>
   <dataFileGUID>c7f74da0-73d9-4939-ad3d-a3d6b3045ba2</dataFileGUID>
   <dataSourceUrl></dataSourceUrl>
   <driver>InternalData</driver>
   <data>5 4 Total+price%3A+100%2C600+THB</data>
   <data>3 0 Total+price%3A+60%2C000+THB</data>
   <data>0 2 Total+price%3A+300+THB</data>
   <internalDataColumns>
      <columnIndex>0</columnIndex>
      <name>garden_amount</name>
      <size>3</size>
   </internalDataColumns>
   <internalDataColumns>
      <columnIndex>1</columnIndex>
      <name>banana_amount</name>
      <size>3</size>
   </internalDataColumns>
   <internalDataColumns>
      <columnIndex>2</columnIndex>
      <name>totalPrice</name>
      <size>3</size>
   </internalDataColumns>
   <isInternalPath>false</isInternalPath>
   <query></query>
   <secureUserAccount>false</secureUserAccount>
   <sheetName></sheetName>
   <usingGlobalDBSetting>false</usingGlobalDBSetting>
</DataFileEntity>
